<?xml version="1.0" encoding="utf-8"?>
<!-- Generator: Adobe Illustrator 18.1.1, SVG Export Plug-In . SVG Version: 6.00 Build 0)  -->
<svg version="1.1" id="Layer_1" xmlns="http://www.w3.org/2000/svg" xmlns:xlink="http://www.w3.org/1999/xlink" x="0px" y="0px"
	 viewBox="0 0 936 236.7" enable-background="new 0 0 936 236.7" xml:space="preserve">
<g>
	<g>
		<path fill="#343333" d="M348.7,84.5h-43.5c0-6.3,0-13.3,0-21.3c0.2-24.6,6.7-33.7,13.9-38.4c7.4-4.9,18.7-5.3,29.6-5.2
			c4.6,0,8.3-3.7,8.3-8.3c0-4.6-3.7-8.3-8.3-8.3c-10.8,0.1-25.4-0.4-38.4,7.8C297,19.2,288.5,36,288.7,63.3c0,8,0,15,0,21.3h-17
			c-4.6,0-8.3,3.7-8.3,8.3c0,4.6,3.7,8.3,8.3,8.3h17c0,39.2,0,44.7,0,123.9c0,4.6,3.7,8.3,8.3,8.3c4.6,0,8.3-3.7,8.3-8.3
			c0-79.2,0-84.7,0-123.9h43.5c4.6,0,8.3-3.7,8.3-8.3C357,88.3,353.3,84.5,348.7,84.5z"/>
		<path fill="#343333" d="M543.4,216.7L543.4,216.7c-13.9,0.1-25.2-0.8-31.5-5.6c-6.3-4.5-11.9-14.3-12-39.3c0-35.6,0-52,0-70.6
			h43.6c4.6,0,8.3-3.7,8.3-8.3c0-4.6-3.7-8.3-8.3-8.3h-43.6c0-16.5,0-37.7,0-73.4c0-4.6-3.7-8.3-8.3-8.3c-4.6,0-8.2,3.7-8.2,8.3
			c0,35.7,0,56.9,0,73.4h-17c-4.5,0-8.3,3.7-8.3,8.3c0,4.6,3.7,8.3,8.3,8.3h17c0,18.6,0,35,0,70.6c-0.1,26.9,6.3,43.6,18.9,52.7
			c12.6,8.8,27.2,8.5,41.2,8.6c4.6,0,8.3-3.7,8.3-8.3C551.7,220.4,548,216.7,543.4,216.7z"/>
		<path fill="#343333" d="M923.5,216.7L923.5,216.7c-17.8,0.1-28.8-1.9-34-6.8c-5.4-4.5-9.5-14.9-9.5-37.8c0-39.5,0-51.5,0-70.9
			h43.5c4.6,0,8.3-3.7,8.3-8.3s-3.7-8.3-8.3-8.3H880c0-15.5,0-37.3,0-73.4c0-4.6-3.7-8.3-8.3-8.3c-4.6,0-8.3,3.7-8.3,8.3
			c0,36.1,0,57.9,0,73.4h-17c-4.6,0-8.3,3.7-8.3,8.3c0,4.6,3.7,8.3,8.3,8.3h17c0,19.4,0,31.4,0,70.9c0.1,24.2,3.8,40.1,15.2,50.3
			c11.6,9.8,26.6,10.6,44.9,10.8c4.6,0,8.3-3.7,8.3-8.3C931.8,220.4,928.1,216.7,923.5,216.7z"/>
		<g>
			<g>
				<path fill="#343333" d="M398.8,225V92.8c0-4.6,3.7-8.3,8.3-8.3l0,0c4.6,0,8.3,3.7,8.3,8.3l0,0V225c0,4.6-3.7,8.3-8.3,8.3l0,0
					C402.5,233.2,398.8,229.5,398.8,225L398.8,225z"/>
			</g>
		</g>
		<g>
			<g>
				<g>
					<path fill="#343333" d="M782.4,225V92.8c0-4.6,3.7-8.3,8.2-8.3l0,0c4.6,0,8.3,3.7,8.3,8.3l0,0V225c0,4.6-3.7,8.3-8.3,8.3l0,0
						C786.1,233.2,782.4,229.5,782.4,225L782.4,225z"/>
				</g>
			</g>
		</g>
		<path fill="#343333" d="M667.9,84c-23.6,0-44.6,10.9-58.3,28c0-22.7,0-38.5,0-100.6c0-4.6-3.7-8.3-8.3-8.3s-8.3,3.7-8.3,8.3
			c0,95.1,0,79.6,0,152.4c0,0.6,0.2,1.1,0.3,1.7c3.4,38.2,35.4,68.1,74.5,68.1c41.3,0,74.8-33.5,74.8-74.8
			C742.7,117.5,709.2,84,667.9,84z M667.9,217c-32.2-0.1-58.2-26.1-58.3-58.3c0-32.2,26.1-58.2,58.3-58.3
			c32.2,0.1,58.2,26.1,58.2,58.3C726.1,191,700.1,217,667.9,217z"/>
		<g>
			<path fill="#48C2C5" d="M395.4,51.4c-3.1-3.1-4.8-7.4-4.8-11.7l0,0c0-4.4,1.8-8.6,4.8-11.7l0,0c3.1-3.1,7.3-4.8,11.7-4.8l0,0
				c4.3,0,8.6,1.8,11.7,4.8l0,0c3.1,3.1,4.8,7.3,4.8,11.7l0,0c0,4.3-1.8,8.6-4.8,11.7l0,0c-3.1,3.1-7.3,4.8-11.7,4.8l0,0
				C402.7,56.2,398.5,54.4,395.4,51.4L395.4,51.4z"/>
		</g>
		<g>
			<path fill="#48C2C5" d="M779,51.4c-3.1-3.1-4.8-7.4-4.8-11.7l0,0c0-4.4,1.8-8.6,4.8-11.7l0,0c3.1-3.1,7.3-4.8,11.7-4.8l0,0
				c4.3,0,8.6,1.8,11.7,4.8l0,0c3.1,3.1,4.8,7.3,4.8,11.7l0,0c0,4.3-1.8,8.6-4.8,11.7l0,0c-3.1,3.1-7.3,4.8-11.7,4.8l0,0
				C786.3,56.2,782.1,54.4,779,51.4L779,51.4z"/>
		</g>
	</g>
	<g>
		<g>
			<path fill="#48C2C5" d="M87,208.5c-2.5-2.5-3.9-5.9-3.9-9.4l0,0c0-3.5,1.4-6.9,3.9-9.4l0,0c2.5-2.5,5.9-3.9,9.4-3.9l0,0
				c3.5,0,7,1.4,9.4,3.9l0,0c2.5,2.5,3.9,5.9,3.9,9.4l0,0c0,3.5-1.4,7-3.9,9.4l0,0c-2.5,2.5-5.9,3.9-9.4,3.9l0,0
				C92.9,212.4,89.5,211,87,208.5L87,208.5z"/>
		</g>
		<g>
			<path fill="#343333" d="M87,129.7c-2.5-2.5-3.9-5.9-3.9-9.4l0,0c0-3.5,1.4-7,3.9-9.4l0,0c2.5-2.5,5.9-3.9,9.4-3.9l0,0
				c3.5,0,6.9,1.4,9.5,3.9l0,0c2.5,2.5,3.9,5.9,3.9,9.4l0,0c0,3.5-1.4,6.9-3.9,9.4l0,0c-2.5,2.5-5.9,3.9-9.5,3.9l0,0
				C92.9,133.6,89.4,132.2,87,129.7L87,129.7z"/>
		</g>
		<g>
			<path fill="#48C2C5" d="M87,50.9c-2.5-2.5-3.9-5.9-3.9-9.4l0,0c0-3.5,1.4-7,3.9-9.4l0,0c2.5-2.5,5.9-3.9,9.4-3.9l0,0
				c3.5,0,7,1.4,9.4,3.9l0,0c2.5,2.5,3.9,5.9,3.9,9.4l0,0c0,3.5-1.4,6.9-3.9,9.4l0,0c-2.5,2.5-5.9,3.9-9.4,3.9l0,0
				C92.9,54.8,89.4,53.4,87,50.9L87,50.9z"/>
		</g>
		<g>
			<path fill="#48C2C5" d="M86.6,89.9c-2.4-2.6-3.7-6.1-3.5-9.6l0,0c0.1-3.5,1.7-6.9,4.3-9.3l0,0c2.6-2.4,6.1-3.7,9.6-3.5l0,0
				c3.5,0.1,6.9,1.7,9.3,4.3l0,0c2.4,2.6,3.7,6.1,3.6,9.6l0,0c-0.1,3.5-1.7,6.9-4.3,9.3l0,0c-2.6,2.4-6.1,3.7-9.6,3.5l0,0
				C92.4,94.1,89,92.5,86.6,89.9L86.6,89.9z"/>
		</g>
		<g>
			<path fill="#48C2C5" d="M87,169.1c-2.5-2.5-3.9-5.9-3.9-9.4l0,0c0-3.5,1.4-6.9,3.9-9.4l0,0c2.5-2.5,5.9-3.9,9.4-3.9l0,0
				c3.5,0,7,1.4,9.4,3.9l0,0c2.5,2.5,3.9,5.9,3.9,9.4l0,0c0,3.5-1.4,6.9-3.9,9.4l0,0c-2.5,2.5-5.9,3.9-9.4,3.9l0,0
				C92.9,173,89.5,171.6,87,169.1L87,169.1z"/>
		</g>
		<g>
			<path fill="#343333" d="M126.4,129.7c-2.5-2.5-3.9-5.9-3.9-9.4l0,0c0-3.5,1.4-7,3.9-9.4l0,0c2.5-2.5,5.9-3.9,9.4-3.9l0,0
				c3.5,0,6.9,1.4,9.4,3.9l0,0c2.5,2.5,3.9,5.9,3.9,9.4l0,0c0,3.5-1.4,6.9-3.9,9.4l0,0c-2.5,2.5-5.9,3.9-9.4,3.9l0,0
				C132.3,133.6,128.9,132.2,126.4,129.7L126.4,129.7z"/>
		</g>
		<g>
			<path fill="#343333" d="M126.4,90.3c-2.5-2.5-3.9-5.9-3.9-9.4l0,0c0-3.5,1.4-7,3.9-9.5l0,0c2.5-2.5,5.9-3.9,9.4-3.9l0,0
				c3.5,0,6.9,1.4,9.4,3.9l0,0c2.5,2.5,3.9,5.9,3.9,9.5l0,0c0,3.5-1.4,6.9-3.9,9.4l0,0c-2.5,2.5-5.9,3.9-9.4,3.9l0,0
				C132.3,94.2,128.9,92.8,126.4,90.3L126.4,90.3z"/>
		</g>
		<g>
			<path fill="#343333" d="M126.4,169.1c-2.5-2.5-3.9-5.9-3.9-9.4l0,0c0-3.5,1.4-6.9,3.9-9.4l0,0c2.5-2.5,5.9-3.9,9.4-3.9l0,0
				c3.5,0,6.9,1.4,9.4,3.9l0,0c2.5,2.5,3.9,5.9,3.9,9.4l0,0c0,3.5-1.4,6.9-3.9,9.4l0,0c-2.5,2.5-5.9,3.9-9.4,3.9l0,0
				C132.3,173,128.9,171.6,126.4,169.1L126.4,169.1z"/>
		</g>
		<g>
			<path fill="#343333" d="M165.8,129.7c-2.5-2.5-3.9-5.9-3.9-9.4l0,0c0-3.5,1.4-7,3.9-9.4l0,0c2.5-2.5,5.9-3.9,9.4-3.9l0,0
				c3.5,0,7,1.4,9.4,3.9l0,0c2.5,2.5,3.9,5.9,3.9,9.4l0,0c0,3.5-1.4,6.9-3.9,9.4l0,0c-2.5,2.5-5.9,3.9-9.4,3.9l0,0
				C171.7,133.6,168.3,132.2,165.8,129.7L165.8,129.7z"/>
		</g>
		<g>
			<path fill="#343333" d="M47.5,129.7c-2.5-2.5-3.9-5.9-3.9-9.4l0,0c0-3.5,1.4-7,3.9-9.4l0,0c2.5-2.5,5.9-3.9,9.5-3.9l0,0
				c3.5,0,6.9,1.4,9.4,3.9l0,0c2.5,2.5,3.9,5.9,3.9,9.4l0,0c0,3.5-1.4,6.9-3.9,9.4l0,0c-2.5,2.5-5.9,3.9-9.4,3.9l0,0
				C53.5,133.6,50,132.2,47.5,129.7L47.5,129.7z"/>
		</g>
		<g>
			<path fill="#48C2C5" d="M47.6,90.3c-2.5-2.5-3.9-5.9-3.9-9.4l0,0c0-3.5,1.4-7,3.9-9.5l0,0c2.5-2.5,5.9-3.9,9.4-3.9l0,0
				c3.5,0,6.9,1.4,9.4,3.9l0,0c2.5,2.5,3.9,5.9,3.9,9.5l0,0c0,3.5-1.4,6.9-3.9,9.4l0,0c-2.5,2.5-5.9,3.9-9.4,3.9l0,0
				C53.5,94.2,50,92.8,47.6,90.3L47.6,90.3z"/>
		</g>
		<g>
			<path fill="#48C2C5" d="M47.5,169.1c-2.5-2.5-3.9-5.9-3.9-9.4l0,0c0-3.5,1.4-6.9,3.9-9.4l0,0c2.5-2.5,5.9-3.9,9.5-3.9l0,0
				c3.5,0,6.9,1.4,9.4,3.9l0,0c2.5,2.5,3.9,5.9,3.9,9.4l0,0c0,3.5-1.4,6.9-3.9,9.4l0,0c-2.5,2.5-5.9,3.9-9.4,3.9l0,0
				C53.5,173,50,171.6,47.5,169.1L47.5,169.1z"/>
		</g>
		<g>
			<path fill="#343333" d="M8.2,129.7c-2.5-2.5-3.9-5.9-3.9-9.4l0,0c0-3.5,1.4-7,3.9-9.4l0,0c2.5-2.5,5.9-3.9,9.4-3.9l0,0
				c3.5,0,6.9,1.4,9.4,3.9l0,0c2.5,2.5,3.9,5.9,3.9,9.4l0,0c0,3.5-1.4,6.9-3.9,9.4l0,0c-2.5,2.5-5.9,3.9-9.4,3.9l0,0
				C14.1,133.6,10.6,132.2,8.2,129.7L8.2,129.7z"/>
		</g>
	</g>
</g>
</svg>
